{
	"info": {
		"_postman_id": "5760e1a7-756d-4b87-b7a8-d8ef31cb51d4",
		"name": "Azure REST",
		"schema": "https://schema.getpostman.com/json/collection/v2.1.0/collection.json"
	},
	"item": [
		{
			"name": "GET people",
			"request": {
				"method": "GET",
				"header": [],
				"url": {
					"raw": "https://lab1kosecioglu.azurewebsites.net/api/people",
					"protocol": "https",
					"host": [
						"lab1kosecioglu",
						"azurewebsites",
						"net"
					],
					"path": [
						"api",
						"people"
					]
				}
			},
			"response": []
		},
		{
			"name": "POST person",
			"request": {
				"method": "POST",
				"header": [],
				"body": {
					"mode": "raw",
					"raw": "{\n    \"firstName\": \"last\",\n    \"lastName\": \"test\"\n}",
					"options": {
						"raw": {
							"language": "json"
						}
					}
				},
				"url": {
					"raw": "https://lab1kosecioglu.azurewebsites.net/api/people",
					"protocol": "https",
					"host": [
						"lab1kosecioglu",
						"azurewebsites",
						"net"
					],
					"path": [
						"api",
						"people"
					]
				}
			},
			"response": []
		},
		{
			"name": "PUT person",
			"request": {
				"method": "PUT",
				"header": [],
				"body": {
					"mode": "raw",
					"raw": "{\n    \n    \"lastName\": \"test Done\"\n}",
					"options": {
						"raw": {
							"language": "json"
						}
					}
				},
				"url": {
					"raw": "https://lab1kosecioglu.azurewebsites.net/api/people/7",
					"protocol": "https",
					"host": [
						"lab1kosecioglu",
						"azurewebsites",
						"net"
					],
					"path": [
						"api",
						"people",
						"7"
					]
				}
			},
			"response": []
		},
		{
			"name": "DELETE person",
			"request": {
				"method": "DELETE",
				"header": [],
				"url": {
					"raw": "https://lab1kosecioglu.azurewebsites.net/api/people/3",
					"protocol": "https",
					"host": [
						"lab1kosecioglu",
						"azurewebsites",
						"net"
					],
					"path": [
						"api",
						"people",
						"3"
					]
				}
			},
			"response": []
		},
		{
			"name": "GET person",
			"request": {
				"method": "GET",
				"header": [],
				"url": {
					"raw": "https://lab1kosecioglu.azurewebsites.net/api/people/7",
					"protocol": "https",
					"host": [
						"lab1kosecioglu",
						"azurewebsites",
						"net"
					],
					"path": [
						"api",
						"people",
						"7"
					]
				}
			},
			"response": []
		}
	],
	"protocolProfileBehavior": {}
}